…
``` r
rubella <-
  read_sf("https://github.com/rfortherestofus/blog/raw/refs/heads/main/highlight-shadow/rubella.geojson")
```

We can take a look at the data:

``` r
rubella
#> Simple feature collection with 69 features and 3 fields
#> Geometry type: MULTIPOLYGON
#> Dimension:     XY
#> Bounding box:  xmin: -1466635 ymin: -185219 xmax: 8649202 ymax: 4806756
#> Projected CRS: WGS 84 / World Mercator
#> # A tibble: 69 × 4
#>    country                  region status                               geometry
#>    <chr>                     <dbl> <chr>                      <MULTIPOLYGON [m]>
#>  1 Afghanistan                   1 Not achieved (((8328599 4443845, 8322613 445…
#>  2 United Arab Emirates          1 Not achieved (((6004988 2752921, 5987241 275…
#>  3 Benin                         0 Not achieved (((392437.9 1287537, 386846.1 1…
#>  4 Burkina Faso                  0 Not achieved (((21538.26 1659358, 26885.45 1…
#>  5 Bahrain                       1 Achieved     (((5634224 2996093, 5633599 296…
#>  6 Central African Republic      0 Not achieved (((2701448 953673.8, 2689646 93…
#>  7 China                         0 Not achieved (((8649200 4202120, 8628076 420…
#>  8 Cameroon                      0 Not achieved (((1719405 819975.1, 1695115 80…
#>  9 Djibouti                      1 Not achieved (((4780514 1224241, 4766042 122…
#> 10 Algeria                       0 Not achieved (((961591.4 4389977, 943599.8 4…
#> # ℹ 59 more rows
```
…
