…
- the column names of `continent_mean_life_exps` should go into one column, say, `year` and
- all the values from all but the first column should move into another column, say, `mean_life_exp`.

And with a little bit of magic from `pivot_longer()` we can do that. Check it out. (And don’t worry about the details of `pivot_longer()`. We have [another blog post](https://rfortherestofus.com/2023/11/pivot-functions) to help you with that. Let’s just focus on this tidy data thing for now.)

``` r
dat_rearranged <- continent_mean_life_exps |> 
  pivot_longer(
    cols = -continent,
    names_to = 'year', 
    names_prefix = 'year_',
    names_transform = as.numeric
  )
dat_rearranged
#> # A tibble: 60 × 3
#>    continent  year value
#>    <fct>     <dbl> <dbl>
#>  1 Asia       1952  46.3
#>  2 Asia       1957  49.3
#>  3 Asia       1962  51.6
#>  4 Asia       1967  54.7
#>  5 Asia       1972  57.3
#>  6 Asia       1977  59.6
#>  7 Asia       1982  62.6
#>  8 Asia       1987  64.9
#>  9 Asia       1992  66.5
#> 10 Asia       1997  68.0
#> # ℹ 50 more rows
```
…
