…
- which columns should be reshaped,
- what kind of information is in the column names, and
- what kind of information is in the values of each column that gets rearranged.

Here’s how we would turn these steps into code. I hope you will find this is pretty much how we phrased the text earlier.

``` r
taylor_longer <- taylor_albums |> 
  pivot_longer(
    cols = c(metacritic_score, user_score),
    names_to = 'score_type',
    values_to = 'score'
  )
taylor_longer
#> # A tibble: 24 × 5
#>    album_name   ep    album_release score_type       score
#>    <chr>        <lgl> <date>        <chr>            <dbl>
#>  1 Taylor Swift FALSE 2006-10-24    metacritic_score  67  
#>  2 Taylor Swift FALSE 2006-10-24    user_score         8.5
#>  3 Fearless     FALSE 2008-11-11    metacritic_score  73  
#>  4 Fearless     FALSE 2008-11-11    user_score         8.4
#>  5 Speak Now    FALSE 2010-10-25    metacritic_score  77  
#>  6 Speak Now    FALSE 2010-10-25    user_score         8.6
#>  7 Red          FALSE 2012-10-22    metacritic_score  77  
#>  8 Red          FALSE 2012-10-22    user_score         8.5
#>  9 1989         FALSE 2014-10-27    metacritic_score  76  
#> 10 1989         FALSE 2014-10-27    user_score         8.2
#> # ℹ 14 more rows
```
…
</details>

## But what if we only have long data?

Now imagine for a second that we only have the data set `taylor_longer`. In case you forgot, here’s how it looks.

``` r
taylor_longer
#> # A tibble: 24 × 5
#>    album_name   ep    album_release score_type       score
#>    <chr>        <lgl> <date>        <chr>            <dbl>
#>  1 Taylor Swift FALSE 2006-10-24    metacritic_score  67  
#>  2 Taylor Swift FALSE 2006-10-24    user_score         8.5
#>  3 Fearless     FALSE 2008-11-11    metacritic_score  73  
#>  4 Fearless     FALSE 2008-11-11    user_score         8.4
#>  5 Speak Now    FALSE 2010-10-25    metacritic_score  77  
#>  6 Speak Now    FALSE 2010-10-25    user_score         8.6
#>  7 Red          FALSE 2012-10-22    metacritic_score  77  
#>  8 Red          FALSE 2012-10-22    user_score         8.5
#>  9 1989         FALSE 2014-10-27    metacritic_score  76  
#> 10 1989         FALSE 2014-10-27    user_score         8.2
#> # ℹ 14 more rows
```
…
