…
<!-- Reference to an R4ROU project -->

Every now and then it happens that a lot of information is crunched into one column. For example, take a look at this data about board games from [tidyTuesday](https://github.com/rfordatascience/tidytuesday/blob/master/data/2022/2022-01-25/readme.md).

``` r
library(tidyverse)
details <- readr::read_csv("https://raw.githubusercontent.com/rfordatascience/tidytuesday/master/data/2022/2022-01-25/details.csv")

board_games <- details |>
  select(id, name = primary, boardgamecategory)
board_games
#> # A tibble: 21,631 × 3
#>        id name              boardgamecategory                                   
#>     <dbl> <chr>             <chr>                                               
#>  1  30549 Pandemic          ['Medical']                                         
#>  2    822 Carcassonne       ['City Building', 'Medieval', 'Territory Building'] 
#>  3     13 Catan             ['Economic', 'Negotiation']                         
#>  4  68448 7 Wonders         ['Ancient', 'Card Game', 'City Building', 'Civiliza…
#>  5  36218 Dominion          ['Card Game', 'Medieval']                           
#>  6   9209 Ticket to Ride    ['Trains']                                          
#>  7 178900 Codenames         ['Card Game', 'Deduction', 'Party Game', 'Spies/Sec…
#>  8 167791 Terraforming Mars ['Economic', 'Environmental', 'Industry / Manufactu…
#>  9 173346 7 Wonders Duel    ['Ancient', 'Card Game', 'City Building', 'Civiliza…
#> 10  31260 Agricola          ['Animals', 'Economic', 'Farming']                  
#> # ℹ 21,621 more rows
```
…
- Split by delimiter (e.g. comma)
  - `separate_wider_delim()`
  - `separate_longer_delim()`
- Split by fixed width
  - `separate_wider_position()`
  - `separate_longer_position()`
- Split by matches from regular expression (powerful but very advanced)
  - `separate_wider_regex()`
  - `separate_longer_regex()`

In this blog post, we’re going do focus on the first set (splitting by delimiter.) These are the easiest to handle. For example, in our data set we can see that all of the board categories are split by comma + one white space. In case you forgot, here’s the data again:

``` r
board_games
#> # A tibble: 21,631 × 3
#>        id name              boardgamecategory                                   
#>     <dbl> <chr>             <chr>                                               
#>  1  30549 Pandemic          ['Medical']                                         
#>  2    822 Carcassonne       ['City Building', 'Medieval', 'Territory Building'] 
#>  3     13 Catan             ['Economic', 'Negotiation']                         
#>  4  68448 7 Wonders         ['Ancient', 'Card Game', 'City Building', 'Civiliza…
#>  5  36218 Dominion          ['Card Game', 'Medieval']                           
#>  6   9209 Ticket to Ride    ['Trains']                                          
#>  7 178900 Codenames         ['Card Game', 'Deduction', 'Party Game', 'Spies/Sec…
#>  8 167791 Terraforming Mars ['Economic', 'Environmental', 'Industry / Manufactu…
#>  9 173346 7 Wonders Duel    ['Ancient', 'Card Game', 'City Building', 'Civiliza…
#> 10  31260 Agricola          ['Animals', 'Economic', 'Farming']                  
#> # ℹ 21,621 more rows
```

So we can pass the data set to `separate_longer_delim()` and tell it to

- target the column `boardgamecategory` while
- using `,` (include a white space) as delimiter.

``` r
board_games |>
  separate_longer_delim(cols = boardgamecategory, delim = ", ")
#> # A tibble: 56,915 × 3
#>       id name        boardgamecategory    
#>    <dbl> <chr>       <chr>                
#>  1 30549 Pandemic    ['Medical']          
#>  2   822 Carcassonne ['City Building'     
#>  3   822 Carcassonne 'Medieval'           
#>  4   822 Carcassonne 'Territory Building']
#>  5    13 Catan       ['Economic'          
#>  6    13 Catan       'Negotiation']       
#>  7 68448 7 Wonders   ['Ancient'           
#>  8 68448 7 Wonders   'Card Game'          
#>  9 68448 7 Wonders   'City Building'      
#> 10 68448 7 Wonders   'Civilization'       
#> # ℹ 56,905 more rows
```
…
  separate_longer_delim(cols = boardgamecategory, delim = ", ") |>
  mutate(
    boardgamecategory = str_replace_all(
      boardgamecategory,
      c(
        # pattern_to_replace = replacement
        `[` = "",
        `]` = "",
        `"` = "",
        `'` = ""
      ) |> coll()
    )
  )
rearranged_dat
#> # A tibble: 56,915 × 3
#>       id name        boardgamecategory 
#>    <dbl> <chr>       <chr>             
#>  1 30549 Pandemic    Medical           
#>  2   822 Carcassonne City Building     
#>  3   822 Carcassonne Medieval          
#>  4   822 Carcassonne Territory Building
#>  5    13 Catan       Economic          
#>  6    13 Catan       Negotiation       
#>  7 68448 7 Wonders   Ancient           
#>  8 68448 7 Wonders   Card Game         
#>  9 68448 7 Wonders   City Building     
#> 10 68448 7 Wonders   Civilization      
#> # ℹ 56,905 more rows
```
…
