…
We can look the `improved_corners` data frame we’ve created and see that
it consists of an id variable (`objectid)`, a `ramp_style` variable
(which is either Improved or Unimproved), and a geometry column, which
consists of the location of each corner:

    #> Simple feature collection with 38492 features and 2 fields
    #> Geometry type: POINT
    #> Dimension:     XY
    #> Bounding box:  xmin: -122.8301 ymin: 45.43282 xmax: -122.4619 ymax: 45.63909
    #> Geodetic CRS:  WGS 84
    #> # A tibble: 38,492 × 3
    #>    objectid ramp_style             geometry
    #>       <int> <chr>               <POINT [°]>
    #>  1        1 Unimproved  (-122.6607 45.6012)
    #>  2        2 Unimproved (-122.6606 45.60167)
    #>  3        3 Unimproved (-122.6605 45.60117)
    #>  4        4 Unimproved (-122.6604 45.60163)
    #>  5        5 Unimproved (-122.6603 45.60056)
    #>  6        6 Unimproved (-122.6603 45.60072)
    #>  7        7 Unimproved (-122.6602 45.60079)
    #>  8        8 Unimproved (-122.6551 45.59177)
    #>  9        9 Unimproved (-122.6546 45.59212)
    #> 10       10 Unimproved (-122.6538 45.59125)
    #> # ℹ 38,482 more rows
…
If we look at `improved_corners_grid`, we can see that it has each
corner joined to the grid cell within which it is located.

    #> Simple feature collection with 41222 features and 3 fields
    #> Geometry type: MULTIPOLYGON
    #> Dimension:     XY
    #> Bounding box:  xmin: -122.8368 ymin: 45.43254 xmax: -122.472 ymax: 45.65289
    #> Geodetic CRS:  WGS 84
    #> # A tibble: 41,222 × 4
    #>    grid_id                                          geometry objectid ramp_style
    #>  *   <int>                                <MULTIPOLYGON [°]>    <int> <chr>     
    #>  1       1 (((-122.7437 45.43474, -122.7437 45.43446, -122.…       NA <NA>      
    #>  2       2 (((-122.7419 45.43328, -122.7412 45.43327, -122.…    23683 Unimproved
    #>  3       2 (((-122.7419 45.43328, -122.7412 45.43327, -122.…    23684 Unimproved
    #>  4       2 (((-122.7419 45.43328, -122.7412 45.43327, -122.…    23685 Unimproved
    #>  5       2 (((-122.7419 45.43328, -122.7412 45.43327, -122.…    23686 Unimproved
    #>  6       2 (((-122.7419 45.43328, -122.7412 45.43327, -122.…    23687 Unimproved
    #>  7       2 (((-122.7419 45.43328, -122.7412 45.43327, -122.…    23688 Unimproved
    #>  8       3 (((-122.7383 45.43325, -122.7383 45.43325, -122.…    23692 Unimproved
    #>  9       3 (((-122.7383 45.43325, -122.7383 45.43325, -122.…    23696 Unimproved
    #> 10       3 (((-122.7383 45.43325, -122.7383 45.43325, -122.…    23697 Unimproved
    #> # ℹ 41,212 more rows
…
Let’s now look at our `unimproved_corners_grid_pct` object. As you can
see, we now have one row for each grid cell, with a `pct` variable that
shows the percentage of unimproved corners in that cell.

    #> Simple feature collection with 5725 features and 2 fields
    #> Geometry type: MULTIPOLYGON
    #> Dimension:     XY
    #> Bounding box:  xmin: -122.8368 ymin: 45.43254 xmax: -122.472 ymax: 45.65289
    #> Geodetic CRS:  WGS 84
    #> # A tibble: 5,725 × 3
    #>    grid_id   pct                                                        geometry
    #>      <int> <dbl>                                              <MULTIPOLYGON [°]>
    #>  1       1    NA (((-122.7437 45.43474, -122.7437 45.43446, -122.7437 45.43419,…
    #>  2       2     1 (((-122.7419 45.43328, -122.7412 45.43327, -122.7411 45.43327,…
    #>  3       3     1 (((-122.7383 45.43325, -122.7383 45.43325, -122.7381 45.43325,…
    #>  4       4    NA (((-122.7346 45.43322, -122.7334 45.43321, -122.7334 45.43321,…
    #>  5       5    NA (((-122.731 45.43435, -122.7309 45.43435, -122.7305 45.43435, …
    #>  6       6    NA (((-122.7112 45.43474, -122.7112 45.43469, -122.7103 45.43468,…
    #>  7       7    NA (((-122.7047 45.43474, -122.7046 45.43472, -122.7046 45.4347, …
    #>  8       8     1 (((-122.7018 45.43404, -122.7011 45.43387, -122.701 45.43384, …
    #>  9       9     1 (((-122.6982 45.43255, -122.6981 45.43255, -122.6978 45.43254,…
    #> 10      10    NA (((-122.6841 45.43474, -122.6841 45.43471, -122.6841 45.4346, …
    #> # ℹ 5,715 more rows
…
