…
``` r
library(tidyverse)
```

Next, I’ll import my data. I’ve created an RDS file that I’ve posted on GitHub, which I’m importing in the code below.

``` r
housing_cost_burden <-
  read_rds("https://github.com/rfortherestofus/blog/raw/refs/heads/main/hide-small-values/housing_cost_burden.rds")
```

Having now created a `housing_cost_burden`, let’s take a look at it.

    #> # A tibble: 694 × 4
    #>    location   burden_level       pct pct_formatted
    #>    <fct>      <fct>            <dbl> <chr>        
    #>  1 Bethel     Not burdened    0.381  38%          
    #>  2 Bethel     Moderate burden 0.352  35%          
    #>  3 Bethel     Severe burden   0.229  23%          
    #>  4 Bethel     Not computed    0.0385 4%           
    #>  5 Bridgeport Not burdened    0.358  36%          
    #>  6 Bridgeport Moderate burden 0.260  26%          
    #>  7 Bridgeport Severe burden   0.332  33%          
    #>  8 Bridgeport Not computed    0.0494 5%           
    #>  9 Brookfield Not burdened    0.501  50%          
    #> 10 Brookfield Moderate burden 0.228  23%          
    #> # ℹ 684 more rows
…
<img src="hide-small-values_files/figure-commonmark/hartford-plot-v1-1.png" style="width:100.0%" />

## Hide Text Labels with Small Values

To fix this problem, I’m going to create a new data frame. Below, I take the original `housing_cost_burden` data frame, but then adjust the `pct_formatted` variable. The line `mutate(pct_formatted = if_else(pct > 0.07, pct_formatted, NA))` says: “if the value of `pct` is greater than 0.07, then keep the `pct_formatted` variable; if not, make it `NA`).

``` r
housing_cost_burden_2 <-
  housing_cost_burden |>
  mutate(pct_formatted = if_else(pct > 0.07, pct_formatted, NA))
```

You can see the result below:

    #> # A tibble: 694 × 4
    #>    location   burden_level       pct pct_formatted
    #>    <fct>      <fct>            <dbl> <chr>        
    #>  1 Bethel     Not burdened    0.381  38%          
    #>  2 Bethel     Moderate burden 0.352  35%          
    #>  3 Bethel     Severe burden   0.229  23%          
    #>  4 Bethel     Not computed    0.0385 <NA>         
    #>  5 Bridgeport Not burdened    0.358  36%          
    #>  6 Bridgeport Moderate burden 0.260  26%          
    #>  7 Bridgeport Severe burden   0.332  33%          
    #>  8 Bridgeport Not computed    0.0494 <NA>         
    #>  9 Brookfield Not burdened    0.501  50%          
    #> 10 Brookfield Moderate burden 0.228  23%          
    #> # ℹ 684 more rows
…
