…
Next, we’ll import my data.

``` r
median_income <-
  read_csv("https://raw.githubusercontent.com/rfortherestofus/blog/main/set-consistent-limits/median_income.csv")
```

You can see the four variables we have in this data frame.

``` r
median_income
#> # A tibble: 37 × 4
#>    geography  year amount amount_formatted
#>    <chr>     <dbl>  <dbl> <chr>           
#>  1 Oregon     2024  76632 $76,632         
#>  2 Baker      2024  51657 $51,657         
#>  3 Benton     2024  72882 $72,882         
#>  4 Clackamas  2024  95740 $95,740         
#>  5 Clatsop    2024  68025 $68,025         
#>  6 Columbia   2024  83265 $83,265         
#>  7 Coos       2024  57563 $57,563         
#>  8 Crook      2024  74969 $74,969         
#>  9 Curry      2024  64300 $64,300         
#> 10 Deschutes  2024  82042 $82,042         
#> # ℹ 27 more rows
```
…
