…
# Data

``` r
population |>
  select(year, coo_iso, refugees) |>
  group_by(year, coo_iso) |>
  summarise(number_of_refugees = sum(refugees, na.rm = TRUE)) |>
  ungroup() |>
  filter(year >= 2000)
#> # A tibble: 4,635 × 3
#>     year coo_iso number_of_refugees
#>    <dbl> <chr>                <dbl>
#>  1  2000 AFG                3587327
#>  2  2000 AGO                 433756
#>  3  2000 ALB                   6801
#>  4  2000 ARE                     17
#>  5  2000 ARG                    608
#>  6  2000 ARM                   5787
#>  7  2000 ATG                      0
#>  8  2000 AUS                      0
#>  9  2000 AUT                     33
#> 10  2000 AZE                 284278
#> # ℹ 4,625 more rows
```

``` r
population
#> # A tibble: 126,402 × 16
#>     year coo_name coo   coo_iso coa_name   coa   coa_iso refugees asylum_seekers
#>    <dbl> <chr>    <chr> <chr>   <chr>      <chr> <chr>      <dbl>          <dbl>
#>  1  1951 Unknown  UKN   UNK     Australia  AUL   AUS       180000              0
#>  2  1951 Unknown  UKN   UNK     Austria    AUS   AUT       282000              0
#>  3  1951 Unknown  UKN   UNK     Belgium    BEL   BEL        55000              0
#>  4  1951 Unknown  UKN   UNK     Canada     CAN   CAN       168511              0
#>  5  1951 Unknown  UKN   UNK     Denmark    DEN   DNK         2000              0
#>  6  1951 Unknown  UKN   UNK     France     FRA   FRA       290000              0
#>  7  1951 Unknown  UKN   UNK     United Ki… GBR   GBR       208000              0
#>  8  1951 Unknown  UKN   UNK     Germany    GFR   DEU       265000              0
#>  9  1951 Unknown  UKN   UNK     Greece     GRE   GRC        18000              0
#> 10  1951 Unknown  UKN   UNK     China, Ho… HKG   HKG        30000              0
#> # ℹ 126,392 more rows
#> # ℹ 7 more variables: returned_refugees <dbl>, idps <dbl>, returned_idps <dbl>,
#> #   stateless <dbl>, ooc <dbl>, oip <dbl>, hst <dbl>
…
