How to make a population pyramid in ggplot
…
Make a basic population pyramid

To make a basic population pyramid, I’ll load the tidyverse and then bring in the data I use for Oregon by the Numbers, saving it as an object called oregon_population_pyramid_data.

library(tidyverse)

oregon_population_pyramid_data <-
  read_csv("https://raw.githubusercontent.com/rfortherestofus/blog/main/population-pyramid/oregon_population_pyramid_data.csv")

We can take a look at the data to see its structure:

oregon_population_pyramid_data

# A tibble: 1,296 × 4
   county    age   gender percent
   <chr>     <chr> <chr>    <dbl>
 1 Baker     0-4   Men     0.0260
 2 Benton    0-4   Men     0.0194
 3 Clackamas 0-4   Men     0.0258
 4 Clatsop   0-4   Men     0.0270
 5 Columbia  0-4   Men     0.0278
 6 Coos      0-4   Men     0.0220
 7 Crook     0-4   Men     0.0253
 8 Curry     0-4   Men     0.0149
 9 Deschutes 0-4   Men     0.0245
10 Douglas   0-4   Men     0.0260
# ℹ 1,286 more rows
…
