…
We figured out that we can rearrange the data from the columns `metacritic_score` and `user_score` so that we can pass this new data set to `ggplot()` for quick plotting.

``` r
taylor_longer <- taylor_albums |> 
  pivot_longer(
    cols = c(metacritic_score, user_score),
    names_to = 'score_type',
    values_to = 'score'
  )
taylor_longer
#> # A tibble: 24 × 5
#>    album_name   ep    album_release score_type       score
#>    <chr>        <lgl> <date>        <chr>            <dbl>
#>  1 Taylor Swift FALSE 2006-10-24    metacritic_score  67  
#>  2 Taylor Swift FALSE 2006-10-24    user_score         8.5
#>  3 Fearless     FALSE 2008-11-11    metacritic_score  73  
#>  4 Fearless     FALSE 2008-11-11    user_score         8.4
#>  5 Speak Now    FALSE 2010-10-25    metacritic_score  77  
#>  6 Speak Now    FALSE 2010-10-25    user_score         8.6
#>  7 Red          FALSE 2012-10-22    metacritic_score  77  
#>  8 Red          FALSE 2012-10-22    user_score         8.5
#>  9 1989         FALSE 2014-10-27    metacritic_score  76  
#> 10 1989         FALSE 2014-10-27    user_score         8.2
#> # ℹ 14 more rows
…
<img src="003_pivot_functions_advanced_files/figure-commonmark/unnamed-chunk-2-1.png" style="width:70.0%" />

## Nicer labels

Notice that in our previous chart, the labels are a bit reduntant. We always write `metacritic_score` or `user_score`. Why not just `Metacritic` or `User` (spelled with a capital letter)?

Well, we could manually make this look nicer. But this would require working with the text variables using functions like `str_remove_all()` or `str_to_title()`.

``` r
taylor_longer |> 
  mutate(
    score_type = score_type |> str_remove_all('_score') |> str_to_title() 
  )
#> # A tibble: 24 × 5
#>    album_name   ep    album_release score_type score
#>    <chr>        <lgl> <date>        <chr>      <dbl>
#>  1 Taylor Swift FALSE 2006-10-24    Metacritic  67  
#>  2 Taylor Swift FALSE 2006-10-24    User         8.5
#>  3 Fearless     FALSE 2008-11-11    Metacritic  73  
#>  4 Fearless     FALSE 2008-11-11    User         8.4
#>  5 Speak Now    FALSE 2010-10-25    Metacritic  77  
#>  6 Speak Now    FALSE 2010-10-25    User         8.6
#>  7 Red          FALSE 2012-10-22    Metacritic  77  
#>  8 Red          FALSE 2012-10-22    User         8.5
#>  9 1989         FALSE 2014-10-27    Metacritic  76  
#> 10 1989         FALSE 2014-10-27    User         8.2
#> # ℹ 14 more rows
```
…
- `names_pattern`: Describes a so-called *regular expression (regex)* that describes the pattern of the column names and by specifying groups with `()` we can tell `pivot_longer()` which parts we want to extract.

- `names_transform`: Describes a function that transforms the labels in the end. In our case this could just be `str_to_title` (without paranthesis).

``` r
taylor_albums |> 
  pivot_longer(
    cols = c(metacritic_score, user_score),
    names_to = 'score_type',
    values_to = 'score',
    names_pattern = '(.+)_score',
    names_transform = str_to_title
  )
#> # A tibble: 24 × 5
#>    album_name   ep    album_release score_type score
#>    <chr>        <lgl> <date>        <chr>      <dbl>
#>  1 Taylor Swift FALSE 2006-10-24    Metacritic  67  
#>  2 Taylor Swift FALSE 2006-10-24    User         8.5
#>  3 Fearless     FALSE 2008-11-11    Metacritic  73  
#>  4 Fearless     FALSE 2008-11-11    User         8.4
#>  5 Speak Now    FALSE 2010-10-25    Metacritic  77  
#>  6 Speak Now    FALSE 2010-10-25    User         8.6
#>  7 Red          FALSE 2012-10-22    Metacritic  77  
#>  8 Red          FALSE 2012-10-22    User         8.5
#>  9 1989         FALSE 2014-10-27    Metacritic  76  
#> 10 1989         FALSE 2014-10-27    User         8.2
#> # ℹ 14 more rows
```
…
Here’s another data set from TidyTuesday. It’s about the wages of nurses in different states of the US.

``` r
nurses <- readr::read_csv('https://raw.githubusercontent.com/rfordatascience/tidytuesday/master/data/2021/2021-10-05/nurses.csv') |>  
  janitor::clean_names()
#> Rows: 1242 Columns: 22
#> ── Column specification ────────────────────────────────────────────────────────
#> Delimiter: ","
#> chr  (1): State
#> dbl (21): Year, Total Employed RN, Employed Standard Error (%), Hourly Wage ...
#> 
#> ℹ Use `spec()` to retrieve the full column specification for this data.
#> ℹ Specify the column types or set `show_col_types = FALSE` to quiet this message.
nurses
#> # A tibble: 1,242 × 22
#>    state           year total_employed_rn employed_standard_er…¹ hourly_wage_avg
#>    <chr>          <dbl>             <dbl>                  <dbl>           <dbl>
#>  1 Alabama         2020             48850                    2.9            29.0
#>  2 Alaska          2020              6240                   13              45.8
#>  3 Arizona         2020             55520                    3.7            38.6
#>  4 Arkansas        2020             25300                    4.2            30.6
#>  5 California      2020            307060                    2              58.0
#>  6 Colorado        2020             52330                    2.8            37.4
#>  7 Connecticut     2020             33400                    6.5            40.8
#>  8 Delaware        2020             11410                   11.4            35.7
#>  9 District of C…  2020             10320                    1.2            43.3
#> 10 Florida         2020            183130                    2.2            33.4
#> # ℹ 1,232 more rows
#> # ℹ abbreviated name: ¹​employed_standard_error_percent
#> # ℹ 17 more variables: hourly_wage_median <dbl>, annual_salary_avg <dbl>,
#> #   annual_salary_median <dbl>, wage_salary_standard_error_percent <dbl>,
#> #   hourly_10th_percentile <dbl>, hourly_25th_percentile <dbl>,
#> #   hourly_75th_percentile <dbl>, hourly_90th_percentile <dbl>,
#> #   annual_10th_percentile <dbl>, annual_25th_percentile <dbl>, …
```
…
- Do we talk about hourly or annual salary?
- What kind of quantity of that salary do we mean? Average, median or some other percentile?

Luckily we can catch all of this with one regex that contains **two** groups (indicated by `()`). Here’s how that could look in `pivot_longer()`.

``` r
nurses |> 
  select(state, year, matches('hourly|annual')) |> 
  pivot_longer(
    cols = -c(state, year),
    names_pattern = '(.+)_(.+)',
    names_to = c('timeframe', 'type'),
    values_to = 'wage'
  )
#> # A tibble: 14,904 × 5
#>    state    year timeframe     type          wage
#>    <chr>   <dbl> <chr>         <chr>        <dbl>
#>  1 Alabama  2020 hourly_wage   avg           29.0
#>  2 Alabama  2020 hourly_wage   median        28.2
#>  3 Alabama  2020 annual_salary avg        60230  
#>  4 Alabama  2020 annual_salary median     58630  
#>  5 Alabama  2020 hourly_10th   percentile    20.8
#>  6 Alabama  2020 hourly_25th   percentile    23.7
#>  7 Alabama  2020 hourly_75th   percentile    33.2
#>  8 Alabama  2020 hourly_90th   percentile    38.7
#>  9 Alabama  2020 annual_10th   percentile 43150  
#> 10 Alabama  2020 annual_25th   percentile 49360  
#> # ℹ 14,894 more rows
```
Oh no. It seems like the `timeframe` column contains more than just “hourly” or “annual”. That’s because our regex `(.+)_(.+)` was a bit ambiguous. Since the `.` operator catches all things including underscores `_` it is not clear weather `pivot_longer()` should split at the first or second underscore.

But we can fix that. Instead of using `.` in the first group, we can use `[a-z]`. This means what we only want to “catch” things that contain lower letters a-z. As the percentiles also contain numbers (as in `25th_percentile`) we get an unambiguous split.

``` r
nurses_longer <- nurses |> 
  select(state, year, matches('hourly|annual')) |> 
  pivot_longer(
    cols = -c(state, year),
    names_pattern = '([a-z]+)_(.+)',
    names_to = c('timeframe', 'type'),
    values_to = 'wage'
  )
nurses_longer
#> # A tibble: 14,904 × 5
#>    state    year timeframe type               wage
#>    <chr>   <dbl> <chr>     <chr>             <dbl>
#>  1 Alabama  2020 hourly    wage_avg           29.0
#>  2 Alabama  2020 hourly    wage_median        28.2
#>  3 Alabama  2020 annual    salary_avg      60230  
#>  4 Alabama  2020 annual    salary_median   58630  
#>  5 Alabama  2020 hourly    10th_percentile    20.8
#>  6 Alabama  2020 hourly    25th_percentile    23.7
#>  7 Alabama  2020 hourly    75th_percentile    33.2
#>  8 Alabama  2020 hourly    90th_percentile    38.7
#>  9 Alabama  2020 annual    10th_percentile 43150  
#> 10 Alabama  2020 annual    25th_percentile 49360  
#> # ℹ 14,894 more rows
```
…
