…
Or maybe we want to use a different granularity. Maybe we can show the data at the county level.

``` r
plot_usmap(fill = "grey20", color = "white", regions = "counties")
```

<img src="016_us_maps_files/figure-commonmark/unnamed-chunk-3-1.png" style="width:80.0%" />

## Adding data to the map

Interesting, there seem to be more counties in the east than in the west. Let’s see how that translates to population. Luckily, the `usmap` package comes with a dataset that contains the population of each county.

``` r
countypop
#> # A tibble: 3,142 × 4
#>    fips  abbr  county          pop_2015
#>    <chr> <chr> <chr>              <dbl>
#>  1 01001 AL    Autauga County     55347
#>  2 01003 AL    Baldwin County    203709
#>  3 01005 AL    Barbour County     26489
#>  4 01007 AL    Bibb County        22583
#>  5 01009 AL    Blount County      57673
#>  6 01011 AL    Bullock County     10696
#>  7 01013 AL    Butler County      20154
#>  8 01015 AL    Calhoun County    115620
#>  9 01017 AL    Chambers County    34123
#> 10 01019 AL    Cherokee County    25859
#> # ℹ 3,132 more rows
```
…
