…
<img src="final_sparklines.png" style="width:60.0%" />

See those little lines. They show you exactly how the open price of the stock prices evolved over time. Seeing this can give you more information on the volatility of a stock. And in `gt` it’s pretty easy to create such a line chart. Let me show you how.

## Grab the data

Let’s first grab the data that was used in the above table. In this case, the data comes from a [TidyTuesday challenge](https://github.com/rfordatascience/tidytuesday/blob/master/data/2023/2023-02-07/readme.md). This means we can download the data by executing this code chunk:

``` r
library(tidyverse)
big_tech_stock_prices <- readr::read_csv('https://raw.githubusercontent.com/rfordatascience/tidytuesday/master/data/2023/2023-02-07/big_tech_stock_prices.csv')

big_tech_stock_prices
#> # A tibble: 45,088 × 8
#>    stock_symbol date        open  high   low close adj_close    volume
#>    <chr>        <date>     <dbl> <dbl> <dbl> <dbl>     <dbl>     <dbl>
#>  1 AAPL         2010-01-04  7.62  7.66  7.58  7.64      6.52 493729600
#>  2 AAPL         2010-01-05  7.66  7.70  7.62  7.66      6.53 601904800
#>  3 AAPL         2010-01-06  7.66  7.69  7.53  7.53      6.42 552160000
#>  4 AAPL         2010-01-07  7.56  7.57  7.47  7.52      6.41 477131200
#>  5 AAPL         2010-01-08  7.51  7.57  7.47  7.57      6.45 447610800
#>  6 AAPL         2010-01-11  7.6   7.61  7.44  7.50      6.40 462229600
#>  7 AAPL         2010-01-12  7.47  7.49  7.37  7.42      6.32 594459600
#>  8 AAPL         2010-01-13  7.42  7.53  7.29  7.52      6.41 605892000
#>  9 AAPL         2010-01-14  7.50  7.52  7.46  7.48      6.38 432894000
#> 10 AAPL         2010-01-15  7.53  7.56  7.35  7.35      6.27 594067600
#> # ℹ 45,078 more rows
```
…
Now, we can combine those two data sets so that we have everything in one place.

``` r
big_tech_stock_prices |> 
  left_join(big_tech_companies, by = 'stock_symbol')
#> # A tibble: 45,088 × 9
#>    stock_symbol date        open  high   low close adj_close    volume company  
#>    <chr>        <date>     <dbl> <dbl> <dbl> <dbl>     <dbl>     <dbl> <chr>    
#>  1 AAPL         2010-01-04  7.62  7.66  7.58  7.64      6.52 493729600 Apple In…
#>  2 AAPL         2010-01-05  7.66  7.70  7.62  7.66      6.53 601904800 Apple In…
#>  3 AAPL         2010-01-06  7.66  7.69  7.53  7.53      6.42 552160000 Apple In…
#>  4 AAPL         2010-01-07  7.56  7.57  7.47  7.52      6.41 477131200 Apple In…
#>  5 AAPL         2010-01-08  7.51  7.57  7.47  7.57      6.45 447610800 Apple In…
#>  6 AAPL         2010-01-11  7.6   7.61  7.44  7.50      6.40 462229600 Apple In…
#>  7 AAPL         2010-01-12  7.47  7.49  7.37  7.42      6.32 594459600 Apple In…
#>  8 AAPL         2010-01-13  7.42  7.53  7.29  7.52      6.41 605892000 Apple In…
#>  9 AAPL         2010-01-14  7.50  7.52  7.46  7.48      6.38 432894000 Apple In…
#> 10 AAPL         2010-01-15  7.53  7.56  7.35  7.35      6.27 594067600 Apple In…
#> # ℹ 45,078 more rows
```

Actually, we don’t need all of that data. Let’s just focus on the company names, the dates and the open prices.

``` r
open_prices_over_time <- big_tech_stock_prices |> 
  left_join(big_tech_companies, by = 'stock_symbol') |> 
  select(company, date, open)
open_prices_over_time
#> # A tibble: 45,088 × 3
#>    company    date        open
#>    <chr>      <date>     <dbl>
#>  1 Apple Inc. 2010-01-04  7.62
#>  2 Apple Inc. 2010-01-05  7.66
#>  3 Apple Inc. 2010-01-06  7.66
#>  4 Apple Inc. 2010-01-07  7.56
#>  5 Apple Inc. 2010-01-08  7.51
#>  6 Apple Inc. 2010-01-11  7.6 
#>  7 Apple Inc. 2010-01-12  7.47
#>  8 Apple Inc. 2010-01-13  7.42
#>  9 Apple Inc. 2010-01-14  7.50
#> 10 Apple Inc. 2010-01-15  7.53
#> # ℹ 45,078 more rows
```
…
